[1;94m[*] [0mReading from directory 'fuzz_out2'...[0m
[1;94m[*] [0mSpinning up the fork server...[0m
[1;92m[+] [0mAll right - fork server is up.[0m
[1;94m[*] [0mTarget map size: 65536[0m
[1;94m[*] [0mScanning 'fuzz_out2'...[0m
[1;94m[*] [0mScanning 'fuzz_out2/aflpp-flvmeta-O1-0'...[0m
[1;94m[*] [0mScanning 'fuzz_out2/aflpp-flvmeta-O1-0/crashes'...[0m
[1;94m[*] [0mScanning 'fuzz_out2/aflpp-flvmeta-O1-0/hangs'...[0m
[1;94m[*] [0mScanning 'fuzz_out2/aflpp-flvmeta-O1-0/queue'...[0m
[1;94m[*] [0mScanning 'fuzz_out2/aflpp-flvmeta-O1-1'...[0m
[1;94m[*] [0mScanning 'fuzz_out2/aflpp-flvmeta-O1-1/crashes'...[0m
[1;94m[*] [0mScanning 'fuzz_out2/aflpp-flvmeta-O1-1/hangs'...[0m
[1;94m[*] [0mScanning 'fuzz_out2/aflpp-flvmeta-O1-1/queue'...[0m
[1;94m[*] [0mScanning 'fuzz_out2/aflpp-flvmeta-O1-2'...[0m
[1;94m[*] [0mScanning 'fuzz_out2/aflpp-flvmeta-O1-2/crashes'...[0m
[1;94m[*] [0mScanning 'fuzz_out2/aflpp-flvmeta-O1-2/hangs'...[0m
[1;94m[*] [0mScanning 'fuzz_out2/aflpp-flvmeta-O1-2/queue'...[0m
[1;94m[*] [0mScanning 'fuzz_out2/aflpp-flvmeta-O1-3'...[0m
[1;94m[*] [0mScanning 'fuzz_out2/aflpp-flvmeta-O1-3/crashes'...[0m
[1;94m[*] [0mScanning 'fuzz_out2/aflpp-flvmeta-O1-3/hangs'...[0m
[1;94m[*] [0mScanning 'fuzz_out2/aflpp-flvmeta-O1-3/queue'...[0m
[1;92m[+] [0mCaptured 497 tuples (map size 65536, highest value 255, total values 2325131) in 'showmap_out2.out'.[0m[0m
[1;92m[+] [0mA coverage of 497 edges were achieved out of 65536 existing (0.76%) with 2264 input files.[0m
