[1;94m[*] [0mReading from directory 'fuzz_out0'...[0m
[1;94m[*] [0mSpinning up the fork server...[0m
[1;92m[+] [0mAll right - fork server is up.[0m
[1;94m[*] [0mTarget map size: 65536[0m
[1;94m[*] [0mScanning 'fuzz_out0'...[0m
[1;94m[*] [0mScanning 'fuzz_out0/aflpp-lame-O2-0'...[0m
[1;94m[*] [0mScanning 'fuzz_out0/aflpp-lame-O2-0/crashes'...[0m
[1;94m[*] [0mScanning 'fuzz_out0/aflpp-lame-O2-0/hangs'...[0m
[1;94m[*] [0mScanning 'fuzz_out0/aflpp-lame-O2-0/queue'...[0m
[1;94m[*] [0mScanning 'fuzz_out0/aflpp-lame-O2-1'...[0m
[1;94m[*] [0mScanning 'fuzz_out0/aflpp-lame-O2-1/crashes'...[0m
[1;94m[*] [0mScanning 'fuzz_out0/aflpp-lame-O2-1/hangs'...[0m
[1;94m[*] [0mScanning 'fuzz_out0/aflpp-lame-O2-1/queue'...[0m
[1;94m[*] [0mScanning 'fuzz_out0/aflpp-lame-O2-2'...[0m
[1;94m[*] [0mScanning 'fuzz_out0/aflpp-lame-O2-2/crashes'...[0m
[1;94m[*] [0mScanning 'fuzz_out0/aflpp-lame-O2-2/hangs'...[0m
[1;94m[*] [0mScanning 'fuzz_out0/aflpp-lame-O2-2/queue'...[0m
[1;94m[*] [0mScanning 'fuzz_out0/aflpp-lame-O2-3'...[0m
[1;94m[*] [0mScanning 'fuzz_out0/aflpp-lame-O2-3/crashes'...[0m
[1;94m[*] [0mScanning 'fuzz_out0/aflpp-lame-O2-3/hangs'...[0m
[1;94m[*] [0mScanning 'fuzz_out0/aflpp-lame-O2-3/queue'...[0m
[1;92m[+] [0mCaptured 3710 tuples (map size 65536, highest value 255, total values 786023404) in 'showmap_out0.out'.[0m[0m
[1;92m[+] [0mA coverage of 3710 edges were achieved out of 65536 existing (5.66%) with 6674 input files.[0m
