[1;94m[*] [0mReading from directory 'fuzz_out2'...[0m
[1;94m[*] [0mSpinning up the fork server...[0m
[1;92m[+] [0mAll right - fork server is up.[0m
[1;94m[*] [0mTarget map size: 65536[0m
[1;94m[*] [0mScanning 'fuzz_out2'...[0m
[1;94m[*] [0mScanning 'fuzz_out2/aflpp-tcpdump-Os-0'...[0m
[1;94m[*] [0mScanning 'fuzz_out2/aflpp-tcpdump-Os-0/crashes'...[0m
[1;94m[*] [0mScanning 'fuzz_out2/aflpp-tcpdump-Os-0/hangs'...[0m
[1;94m[*] [0mScanning 'fuzz_out2/aflpp-tcpdump-Os-0/queue'...[0m
[1;94m[*] [0mScanning 'fuzz_out2/aflpp-tcpdump-Os-1'...[0m
[1;94m[*] [0mScanning 'fuzz_out2/aflpp-tcpdump-Os-1/crashes'...[0m
[1;94m[*] [0mScanning 'fuzz_out2/aflpp-tcpdump-Os-1/hangs'...[0m
[1;94m[*] [0mScanning 'fuzz_out2/aflpp-tcpdump-Os-1/queue'...[0m
[1;94m[*] [0mScanning 'fuzz_out2/aflpp-tcpdump-Os-2'...[0m
[1;94m[*] [0mScanning 'fuzz_out2/aflpp-tcpdump-Os-2/crashes'...[0m
[1;94m[*] [0mScanning 'fuzz_out2/aflpp-tcpdump-Os-2/hangs'...[0m
[1;94m[*] [0mScanning 'fuzz_out2/aflpp-tcpdump-Os-2/queue'...[0m
[1;94m[*] [0mScanning 'fuzz_out2/aflpp-tcpdump-Os-3'...[0m
[1;94m[*] [0mScanning 'fuzz_out2/aflpp-tcpdump-Os-3/crashes'...[0m
[1;94m[*] [0mScanning 'fuzz_out2/aflpp-tcpdump-Os-3/hangs'...[0m
[1;94m[*] [0mScanning 'fuzz_out2/aflpp-tcpdump-Os-3/queue'...[0m
[1;92m[+] [0mCaptured 15675 tuples (map size 65536, highest value 255, total values 66429315) in 'showmap_out2.out'.[0m[0m
[1;92m[+] [0mA coverage of 15675 edges were achieved out of 65536 existing (23.92%) with 27910 input files.[0m
