000093:1
000213:1
000322:1
000384:1
000730:1
000770:1
001113:1
001389:1
001690:1
001706:1
001771:1
001866:1
001953:1
002130:1
002182:1
002214:1
002327:1
002482:1
002577:1
002590:1
002822:1
003390:1
003504:1
003642:1
003695:1
003985:1
004065:1
004096:1
004385:1
004541:1
004552:1
004729:1
004920:1
004921:1
004990:1
005426:1
005586:1
005708:1
005784:1
005892:1
005915:1
005925:1
006060:1
006067:1
006262:1
006307:1
006318:1
006327:1
006346:1
006382:1
006625:1
006695:1
006777:1
006931:1
006964:1
007151:1
007248:1
007407:1
007444:1
007994:1
008087:1
008375:1
008443:1
008453:1
008499:1
008575:1
008614:1
008838:1
009168:1
009203:1
009736:1
009755:1
009850:1
009919:1
009956:1
010201:1
010217:1
010222:1
010281:1
010417:1
010554:1
010771:1
011057:1
011332:1
011531:1
011743:1
011865:1
011959:1
011973:1
012016:1
012031:1
012061:1
012082:1
012149:1
012289:1
012335:1
012342:1
012470:1
012713:1
012756:1
012924:1
012927:1
013082:1
013340:1
013435:1
013565:1
013682:1
013722:1
014018:1
014112:1
014127:1
014203:1
014214:1
014242:1
014389:1
014540:1
014598:1
014986:1
015118:1
015196:1
015218:1
015268:1
015293:1
015433:1
015450:1
015456:1
015735:1
015872:1
015966:1
016216:1
016400:1
016587:1
016612:1
016650:1
016705:1
016876:1
017061:1
017099:1
017293:1
017315:1
017333:1
017344:1
017385:1
017840:1
017909:1
017918:1
018057:1
018075:1
018089:1
018153:1
018204:1
018235:1
018491:1
019002:1
019153:1
019265:1
019535:1
019989:1
020095:1
020199:1
020200:1
020218:1
020379:1
020415:1
020428:1
020689:1
020872:1
020950:1
021057:1
021183:1
021219:1
021269:1
021329:1
021369:1
021394:1
021557:1
021861:1
021915:1
021975:1
021983:1
022059:1
022209:1
022364:1
022375:1
022728:1
022827:1
022837:1
022896:1
022902:1
022954:1
023059:1
023140:1
023307:1
023329:1
023498:1
023556:1
023565:1
023614:1
023800:1
023826:1
023897:1
023994:1
024104:1
024517:1
024664:1
025110:1
025504:1
025541:1
025629:1
025740:1
025936:1
026046:1
026813:1
026851:1
027035:1
027262:1
027430:1
027647:1
027697:1
027885:1
027970:1
027992:1
028111:1
028160:1
028327:1
028411:1
028473:1
028499:1
028595:1
028681:1
028893:1
029105:1
029138:1
029180:1
029221:1
029311:1
029331:1
029399:1
029485:1
029520:1
029987:1
030012:1
030038:1
030085:1
030117:1
030260:1
030333:1
030559:1
030791:1
030837:1
030959:1
031024:1
031150:1
031363:1
031523:1
031742:1
031914:1
032504:1
032520:1
032601:1
032616:1
032836:1
032873:1
033101:1
033207:1
033308:1
033339:1
033369:1
033408:1
033509:1
033612:1
033782:1
033869:1
034099:1
034210:1
034382:1
034449:1
034483:1
034694:1
034939:1
035339:1
035368:1
035391:1
035457:1
035519:1
035928:1
036040:1
036200:1
036368:1
036392:1
036917:1
036919:1
037028:1
037096:1
037184:1
037236:1
037254:1
037419:1
037675:1
037736:1
037846:1
037898:1
037995:1
038513:1
038520:1
038674:1
038915:1
038959:1
038964:1
039104:1
039404:1
039461:1
039601:1
039674:1
039717:1
039813:1
039931:1
040717:1
040935:1
041328:1
041631:1
041708:1
041781:1
042089:1
042178:1
042494:1
043053:1
043340:1
043510:1
043583:1
043628:1
043782:1
043851:1
043885:1
044102:1
044371:1
044495:1
044556:1
044583:1
044630:1
044749:1
045150:1
045254:1
045498:1
045542:1
045676:1
045807:1
046035:1
046067:1
046134:1
046186:1
046752:1
046844:1
046972:1
047011:1
047096:1
047106:1
047402:1
047415:1
047446:1
047462:1
047679:1
047710:1
047912:1
047988:1
048109:1
048117:1
048375:1
048429:1
048525:1
048577:1
048625:1
048689:1
049406:1
049445:1
050005:1
050188:1
050202:1
050205:1
050472:1
050531:1
050673:1
050720:1
050822:1
050931:1
050940:1
050946:1
051216:1
051347:1
051695:1
051861:1
051985:1
052051:1
052306:1
052372:1
052470:1
052601:1
052676:1
052999:1
053010:1
053191:1
053193:1
053206:1
053253:1
053256:1
053639:1
054074:1
054077:1
054125:1
054213:1
054235:1
054514:1
054767:1
054993:1
055034:1
055093:1
055114:1
055239:1
055428:1
055504:1
056026:1
056055:1
056123:1
056268:1
056293:1
056311:1
056703:1
056820:1
056868:1
056964:1
057362:1
058476:1
058538:1
058951:1
058956:1
059140:1
059212:1
059241:1
059488:1
059537:1
059567:1
059737:1
059783:1
059811:1
060008:1
060034:1
060115:1
060409:1
060441:1
060491:1
060539:1
060595:1
060649:1
060775:1
060804:1
060826:1
060827:1
060858:1
060917:1
061118:1
061278:1
061500:1
061519:1
061579:1
061656:1
061759:1
061760:1
061989:1
061995:1
062250:1
062465:1
062939:1
063039:1
063076:1
063223:1
063254:1
063305:1
063350:1
063358:1
063445:1
063518:1
063523:1
063538:1
063553:1
063599:1
063951:1
064254:1
064416:1
064501:1
064557:1
064632:1
064664:1
064675:1
065092:1
065225:1
065235:1
065249:1
065251:1
065480:1
065496:1
