000033:1
000063:1
000100:1
000130:1
000142:1
000164:1
000191:1
000217:1
000242:1
000333:1
000360:1
000397:1
000569:1
000597:1
000643:1
000660:1
000743:1
000747:1
000754:1
000772:1
000812:1
000814:1
000879:1
000893:1
000916:1
000920:1
000940:1
000961:1
001005:1
001036:1
001057:1
001100:1
001112:1
001116:1
001136:1
001160:1
001260:1
001292:1
001295:1
001340:1
001388:1
001531:1
001617:1
001693:1
001698:1
001713:1
001730:1
001802:1
001821:1
001845:1
001928:1
001977:1
002013:1
002068:1
002110:1
002113:1
002118:1
002133:1
002195:1
002208:1
002215:1
002220:1
002304:1
002341:1
002402:1
002502:1
002524:1
002546:1
002594:1
002599:1
002647:1
002666:1
002671:1
002728:1
002735:1
002772:1
002820:1
002918:1
002994:1
003066:1
003081:1
003117:1
003141:1
003162:1
003193:1
003238:1
003245:1
003256:1
003310:1
003325:1
003330:1
003344:1
003366:1
003456:1
003459:1
003475:1
003531:1
003583:1
003597:1
003666:1
003689:1
003704:1
003707:1
003715:1
003837:1
003855:1
003876:1
003908:1
003919:1
004004:1
004014:1
004052:1
004078:1
004133:1
004156:1
004168:1
004177:1
004214:1
004221:1
004223:1
004234:1
004280:1
004306:1
004308:1
004345:1
004353:1
004380:1
004386:1
004410:1
004428:1
004462:1
004509:1
004523:1
004705:1
004896:1
004956:1
004965:1
005045:1
005071:1
005155:1
005160:1
005164:1
005182:1
005206:1
005223:1
005294:1
005305:1
005311:1
005323:1
005377:1
005384:1
005415:1
005447:1
005470:1
005471:1
005534:1
005546:1
005587:1
005759:1
005770:1
005778:1
005779:1
005886:1
005894:1
005923:1
005952:1
005954:1
005955:1
005985:1
005999:1
006100:1
006162:1
006164:1
006175:1
006189:1
006288:1
006353:1
006399:1
006445:1
006453:1
006498:1
006503:1
006555:1
006588:1
006600:1
006604:1
006612:1
006622:1
006643:1
006690:1
006698:1
006700:1
006753:1
006851:1
006880:1
006929:1
006937:1
007042:1
007053:1
007086:1
007092:1
007136:1
007151:1
007181:1
007210:1
007233:1
007250:1
007431:1
007439:1
007471:1
007519:1
007579:1
007587:1
007610:1
007680:1
007695:1
007708:1
007760:1
007776:1
007831:1
007860:1
007886:1
007897:1
007930:1
007989:1
008012:1
008065:1
008073:1
008255:1
008267:1
008276:1
008389:1
008391:1
008435:1
008442:1
008465:1
008473:1
008566:1
008585:1
008616:1
008659:1
008669:1
008753:1
008762:1
008836:1
008883:1
008987:1
008991:1
009050:1
009163:1
009200:1
009237:1
009239:1
009254:1
009274:1
009279:1
009317:1
009331:1
009350:1
009402:1
009433:1
009461:1
009467:1
009501:1
009523:1
009584:1
009596:1
009669:1
009704:1
009716:1
009780:1
009856:1
009865:1
009881:1
009949:1
010053:1
010094:1
010214:1
010221:1
010235:1
010236:1
010285:1
010288:1
010299:1
010302:1
010319:1
010362:1
010451:1
010504:1
010511:1
010548:1
010596:1
010623:1
010624:1
010636:1
010649:1
010683:1
010750:1
010762:1
010773:1
010870:1
010931:1
010933:1
010961:1
011008:1
011014:1
011139:1
011144:1
011177:1
011205:1
011234:1
011281:1
011282:1
011307:1
011309:1
011358:1
011383:1
011392:1
011403:1
011405:1
011466:1
011495:1
011546:1
011564:1
011571:1
011591:1
011600:1
011636:1
011641:1
011657:1
011729:1
011733:1
011735:1
011747:1
011754:1
011821:1
011870:1
011895:1
011912:1
012008:1
012029:1
012067:1
012085:1
012110:1
012172:1
012197:1
012216:1
012268:1
012283:1
012355:1
012370:1
012406:1
012422:1
012432:1
012530:1
012583:1
012615:1
012631:1
012638:1
012662:1
012718:1
012734:1
012764:1
012793:1
012804:1
012827:1
012849:1
012878:1
012900:1
012928:1
012934:1
012941:1
012975:1
012979:1
013010:1
013014:1
013024:1
013029:1
013040:1
013046:1
013057:1
013076:1
013088:1
013168:1
013180:1
013206:1
013256:1
013321:1
013425:1
013451:1
013464:1
013494:1
013575:1
013582:1
013589:1
013708:1
013752:1
013775:1
013788:1
013808:1
013836:1
013855:1
013908:1
013911:1
013919:1
013940:1
013941:1
013950:1
013992:1
014065:1
014069:1
014119:1
014147:1
014198:1
014271:1
014286:1
014309:1
014328:1
014357:1
014374:1
014402:1
014419:1
014437:1
014472:1
014479:1
014498:1
014524:1
014605:1
014674:1
014707:1
014749:1
014758:1
014770:1
014796:1
014894:1
014903:1
014936:1
014945:1
014961:1
014972:1
015005:1
015014:1
015079:1
015133:1
015187:1
015222:1
015258:1
015296:1
015300:1
015319:1
015335:1
015339:1
015410:1
015413:1
015491:1
015508:1
015542:1
015567:1
015655:1
015689:1
015704:1
015711:1
015868:1
015901:1
016013:1
016024:1
016030:1
016054:1
016107:1
016147:1
016173:1
016265:1
016292:1
016349:1
016460:1
016503:1
016508:1
016524:1
016548:1
016620:1
016655:1
016683:1
016708:1
016732:1
016745:1
016754:1
016763:1
016799:1
016826:1
016839:1
016870:1
016906:1
016992:1
016996:1
017039:1
017055:1
017104:1
017193:1
017196:1
017255:1
017284:1
017304:1
017316:1
017373:1
017391:1
017457:1
017480:1
017492:1
017510:1
017511:1
017567:1
017713:1
017786:1
017819:1
017843:1
017878:1
017891:1
017900:1
017902:1
017910:1
017947:1
017978:1
017985:1
018041:1
018045:1
018058:1
018089:1
018105:1
018134:1
018141:1
018177:1
018196:1
018207:1
018243:1
018253:1
018289:1
018330:1
018427:1
018457:1
018485:1
018549:1
018648:1
018673:1
018693:1
018694:1
018842:1
018869:1
018978:1
019004:1
019010:1
019012:1
019131:1
019169:1
019284:1
019312:1
019328:1
019329:1
019362:1
019387:1
019439:1
019504:1
019521:1
019594:1
019601:1
019614:1
019660:1
019703:1
019706:1
019743:1
019804:1
019812:1
019886:1
019899:1
019934:1
019994:1
020049:1
020101:1
020112:1
020140:1
020161:1
020178:1
020185:1
020219:1
020222:1
020223:1
020313:1
020328:1
020336:1
020378:1
020566:1
020593:1
020618:1
020633:1
020728:1
020746:1
020752:1
020762:1
020842:1
020923:1
020950:1
020952:1
021013:1
021035:1
021039:1
021073:1
021091:1
021100:1
021112:1
021116:1
021141:1
021156:1
021160:1
021171:1
021206:1
021213:1
021271:1
021389:1
021397:1
021402:1
021589:1
021610:1
021612:1
021621:1
021631:1
021639:1
021658:1
021670:1
021734:1
021737:1
021749:1
021804:1
021837:1
021880:1
021953:1
021960:1
021969:1
022027:1
022055:1
022098:1
022101:1
022131:1
022146:1
022215:1
022269:1
022290:1
022371:1
022402:1
022411:1
022424:1
022437:1
022569:1
022571:1
022596:1
022616:1
022715:1
022727:1
022733:1
022769:1
022798:1
022838:1
022854:1
022857:1
022879:1
022931:1
022969:1
022998:1
023117:1
023122:1
023172:1
023177:1
023188:1
023232:1
023240:1
023249:1
023260:1
023289:1
023329:1
023332:1
023353:1
023354:1
023390:1
023419:1
023435:1
023476:1
023521:1
023530:1
023534:1
023569:1
023591:1
023605:1
023632:1
023659:1
023767:1
023788:1
023795:1
023797:1
023974:1
024009:1
024100:1
024245:1
024317:1
024321:1
024334:1
024410:1
024443:1
024446:1
024534:1
024597:1
024630:1
024644:1
024651:1
024701:1
024733:1
024766:1
024791:1
024827:1
024841:1
024878:1
024912:1
024929:1
024960:1
024962:1
024966:1
024975:1
025015:1
025034:1
025040:1
025047:1
025108:1
025114:1
025126:1
025162:1
025271:1
025305:1
025308:1
025323:1
025349:1
025412:1
025422:1
025439:1
025475:1
025489:1
025524:1
025587:1
025595:1
025614:1
025628:1
025649:1
025685:1
025740:1
025752:1
025918:1
025921:1
025996:1
026044:1
026084:1
026096:1
026131:1
026175:1
026186:1
026214:1
026245:1
026261:1
026333:1
026343:1
026400:1
026423:1
026509:1
026536:1
026585:1
026592:1
026683:1
026708:1
026711:1
026717:1
026759:1
026879:1
026891:1
026926:1
026940:1
026991:1
026996:1
027039:1
027068:1
027109:1
027125:1
027196:1
027211:1
027239:1
027241:1
027298:1
027312:1
027382:1
027404:1
027426:1
027444:1
027451:1
027484:1
027591:1
027666:1
027690:1
027745:1
027775:1
027929:1
027936:1
028027:1
028050:1
028075:1
028169:1
028176:1
028318:1
028343:1
028361:1
028378:1
028388:1
028484:1
028491:1
028530:1
028556:1
028573:1
028625:1
028631:1
028674:1
028676:1
028683:1
028692:1
028719:1
028739:1
028794:1
028796:1
028809:1
028819:1
028843:1
028848:1
028864:1
028870:1
028952:1
028967:1
028969:1
028975:1
028989:1
028995:1
029019:1
029074:1
029108:1
029115:1
029138:1
029195:1
029301:1
029334:1
029335:1
029396:1
029406:1
029434:1
029448:1
029463:1
029465:1
029467:1
029542:1
029553:1
029565:1
029570:1
029607:1
029622:1
029633:1
029689:1
029706:1
029710:1
029853:1
029945:1
029946:1
029964:1
029968:1
030014:1
030103:1
030155:1
030222:1
030229:1
030275:1
030323:1
030324:1
030348:1
030422:1
030466:1
030496:1
030514:1
030519:1
030545:1
030565:1
030582:1
030585:1
030609:1
030614:1
030755:1
030810:1
030919:1
030927:1
030935:1
030988:1
031016:1
031022:1
031024:1
031025:1
031044:1
031061:1
031069:1
031071:1
031074:1
031076:1
031084:1
031086:1
031107:1
031121:1
031182:1
031189:1
031217:1
031239:1
031261:1
031327:1
031328:1
031358:1
031369:1
031454:1
031522:1
031543:1
031559:1
031598:1
031610:1
031617:1
031634:1
031659:1
031664:1
031699:1
031828:1
031836:1
031842:1
031859:1
031873:1
031982:1
032046:1
032069:1
032088:1
032093:1
032120:1
032122:1
032154:1
032157:1
032166:1
032181:1
032185:1
032212:1
032258:1
032267:1
032277:1
032341:1
032359:1
032376:1
032451:1
032476:1
032531:1
032532:1
032573:1
032587:1
032604:1
032685:1
032711:1
032724:1
032772:1
032815:1
032844:1
032845:1
032889:1
032903:1
032956:1
032962:1
032977:1
032980:1
032991:1
032993:1
032995:1
033012:1
033030:1
033034:1
033081:1
033115:1
033138:1
033183:1
033205:1
033257:1
033285:1
033293:1
033314:1
033386:1
033389:1
033436:1
033446:1
033448:1
033550:1
033590:1
033616:1
033693:1
033780:1
033805:1
033806:1
033839:1
033864:1
033900:1
033914:1
033944:1
033961:1
033968:1
034038:1
034060:1
034063:1
034070:1
034084:1
034087:1
034101:1
034108:1
034146:1
034211:1
034233:1
034250:1
034289:1
034311:1
034362:1
034374:1
034375:1
034403:1
034433:1
034442:1
034457:1
034517:1
034526:1
034552:1
034591:1
034624:1
034625:1
034691:1
034750:1
034781:1
034788:1
034792:1
034794:1
034796:1
034811:1
034823:1
034831:1
034839:1
034875:1
034886:1
034904:1
035044:1
035101:1
035102:1
035130:1
035185:1
035211:1
035288:1
035296:1
035313:1
035318:1
035344:1
035361:1
035402:1
035495:1
035505:1
035542:1
035559:1
035600:1
035610:1
035620:1
035624:1
035630:1
035641:1
035644:1
035669:1
035770:1
035813:1
035938:1
035946:1
035951:1
035961:1
036149:1
036215:1
036226:1
036235:1
036249:1
036265:1
036270:1
036322:1
036382:1
036401:1
036441:1
036442:1
036509:1
036599:1
036647:1
036656:1
036680:1
036734:1
036748:1
036779:1
036833:1
036852:1
036857:1
036869:1
036872:1
036886:1
036938:1
036942:1
036944:1
036979:1
036984:1
037016:1
037019:1
037038:1
037044:1
037045:1
037051:1
037085:1
037088:1
037107:1
037149:1
037244:1
037260:1
037280:1
037301:1
037310:1
037391:1
037418:1
037433:1
037505:1
037521:1
037581:1
037594:1
037627:1
037630:1
037637:1
037662:1
037666:1
037704:1
037738:1
037751:1
037757:1
037796:1
037900:1
037945:1
037963:1
037988:1
038013:1
038018:1
038158:1
038205:1
038296:1
038297:1
038318:1
038332:1
038390:1
038398:1
038456:1
038464:1
038474:1
038494:1
038515:1
038552:1
038635:1
038642:1
038655:1
038662:1
038684:1
038722:1
038932:1
038951:1
038977:1
038998:1
039054:1
039063:1
039081:1
039094:1
039114:1
039153:1
039206:1
039214:1
039233:1
039235:1
039282:1
039289:1
039293:1
039367:1
039376:1
039378:1
039405:1
039471:1
039498:1
039519:1
039530:1
039533:1
039534:1
039552:1
039569:1
039603:1
039621:1
039639:1
039749:1
039867:1
039884:1
039907:1
039916:1
039939:1
039941:1
039986:1
039997:1
040056:1
040145:1
040169:1
040186:1
040197:1
040247:1
040277:1
040290:1
040303:1
040339:1
040392:1
040453:1
040492:1
040517:1
040553:1
040576:1
040616:1
040667:1
040693:1
040708:1
040800:1
040807:1
040813:1
040823:1
040824:1
040883:1
040952:1
040989:1
040997:1
041027:1
041040:1
041075:1
041174:1
041201:1
041302:1
041308:1
041325:1
041431:1
041457:1
041460:1
041469:1
041499:1
041575:1
041594:1
041602:1
041636:1
041665:1
041713:1
041732:1
041737:1
041777:1
041894:1
041898:1
041909:1
041918:1
042051:1
042054:1
042065:1
042082:1
042119:1
042122:1
042366:1
042370:1
042388:1
042435:1
042458:1
042496:1
042508:1
042518:1
042523:1
042524:1
042539:1
042564:1
042589:1
042615:1
042644:1
042653:1
042662:1
042739:1
042777:1
042790:1
042811:1
042887:1
042899:1
043034:1
043040:1
043155:1
043166:1
043195:1
043198:1
043213:1
043224:1
043252:1
043281:1
043326:1
043327:1
043360:1
043375:1
043418:1
043431:1
043449:1
043455:1
043504:1
043522:1
043524:1
043537:1
043564:1
043566:1
043656:1
043659:1
043718:1
043724:1
043870:1
043874:1
043884:1
043902:1
043929:1
043980:1
043985:1
044006:1
044059:1
044117:1
044161:1
044174:1
044197:1
044214:1
044292:1
044298:1
044306:1
044341:1
044355:1
044374:1
044388:1
044411:1
044426:1
044430:1
044448:1
044505:1
044511:1
044512:1
044547:1
044563:1
044564:1
044602:1
044620:1
044642:1
044689:1
044692:1
044834:1
044851:1
044881:1
044886:1
044900:1
044952:1
044993:1
045000:1
045030:1
045033:1
045043:1
045116:1
045149:1
045165:1
045197:1
045305:1
045340:1
045361:1
045429:1
045478:1
045504:1
045511:1
045521:1
045529:1
045547:1
045549:1
045563:1
045573:1
045596:1
045636:1
045671:1
045689:1
045698:1
045720:1
045743:1
045775:1
045782:1
045807:1
045812:1
045829:1
045849:1
045868:1
045907:1
045957:1
045966:1
046049:1
046067:1
046071:1
046078:1
046145:1
046290:1
046341:1
046389:1
046409:1
046425:1
046438:1
046546:1
046555:1
046574:1
046609:1
046636:1
046658:1
046662:1
046672:1
046738:1
046750:1
046752:1
046772:1
046776:1
046816:1
046835:1
046842:1
046854:1
046881:1
046898:1
046909:1
046911:1
046939:1
046945:1
046973:1
046988:1
047000:1
047023:1
047100:1
047128:1
047137:1
047255:1
047264:1
047286:1
047294:1
047312:1
047320:1
047362:1
047384:1
047402:1
047421:1
047475:1
047502:1
047518:1
047571:1
047599:1
047622:1
047660:1
047683:1
047716:1
047731:1
047766:1
047769:1
047810:1
047842:1
047860:1
047911:1
047953:1
047972:1
048080:1
048102:1
048113:1
048136:1
048198:1
048216:1
048223:1
048298:1
048356:1
048358:1
048389:1
048461:1
048479:1
048508:1
048531:1
048621:1
048638:1
048652:1
048717:1
048741:1
048766:1
048802:1
048809:1
048971:1
048981:1
049002:1
049046:1
049072:1
049073:1
049075:1
049144:1
049156:1
049170:1
049198:1
049200:1
049203:1
049214:1
049240:1
049292:1
049295:1
049302:1
049310:1
049319:1
049325:1
049336:1
049343:1
049395:1
049401:1
049402:1
049406:1
049421:1
049425:1
049443:1
049462:1
049469:1
049507:1
049570:1
049621:1
049633:1
049673:1
049705:1
049740:1
049795:1
049826:1
049860:1
049918:1
050066:1
050171:1
050224:1
050263:1
050270:1
050281:1
050329:1
050346:1
050352:1
050357:1
050374:1
050405:1
050407:1
050463:1
050718:1
050801:1
050828:1
050898:1
050918:1
050933:1
050981:1
051006:1
051048:1
051077:1
051136:1
051164:1
051188:1
051193:1
051223:1
051271:1
051272:1
051277:1
051350:1
051442:1
051527:1
051544:1
051558:1
051606:1
051621:1
051635:1
051728:1
051752:1
051755:1
051789:1
051790:1
051908:1
051925:1
051941:1
051962:1
051973:1
051982:1
051993:1
051997:1
052001:1
052049:1
052053:1
052167:1
052264:1
052302:1
052315:1
052341:1
052407:1
052445:1
052447:1
052465:1
052479:1
052607:1
052634:1
052657:1
052681:1
052703:1
052710:1
052734:1
052793:1
052809:1
052859:1
052869:1
052909:1
052937:1
052972:1
052988:1
052998:1
053026:1
053044:1
053055:1
053062:1
053102:1
053179:1
053275:1
053298:1
053334:1
053419:1
053443:1
053474:1
053497:1
053552:1
053563:1
053603:1
053608:1
053611:1
053617:1
053623:1
053646:1
053666:1
053680:1
053707:1
053710:1
053760:1
053802:1
053850:1
053871:1
053889:1
053894:1
053956:1
053981:1
054002:1
054057:1
054083:1
054114:1
054182:1
054214:1
054234:1
054251:1
054261:1
054273:1
054296:1
054329:1
054424:1
054458:1
054466:1
054524:1
054530:1
054552:1
054585:1
054614:1
054639:1
054645:1
054755:1
054764:1
054805:1
054893:1
054905:1
054931:1
054952:1
055090:1
055092:1
055094:1
055110:1
055137:1
055207:1
055212:1
055217:1
055225:1
055301:1
055307:1
055334:1
055377:1
055378:1
055402:1
055434:1
055453:1
055462:1
055479:1
055509:1
055571:1
055590:1
055604:1
055652:1
055662:1
055677:1
055702:1
055715:1
055722:1
055754:1
055820:1
055845:1
055871:1
055878:1
055939:1
055946:1
055985:1
056048:1
056077:1
056115:1
056155:1
056261:1
056273:1
056325:1
056439:1
056456:1
056506:1
056544:1
056575:1
056581:1
056606:1
056626:1
056627:1
056636:1
056648:1
056659:1
056750:1
056895:1
056914:1
056941:1
056956:1
056957:1
056985:1
056998:1
057012:1
057015:1
057076:1
057119:1
057135:1
057148:1
057160:1
057184:1
057225:1
057328:1
057363:1
057367:1
057406:1
057468:1
057511:1
057522:1
057542:1
057575:1
057603:1
057631:1
057723:1
057733:1
057785:1
057839:1
057911:1
057957:1
057982:1
058022:1
058026:1
058038:1
058086:1
058092:1
058151:1
058221:1
058253:1
058281:1
058400:1
058457:1
058475:1
058521:1
058580:1
058583:1
058617:1
058627:1
058651:1
058676:1
058714:1
058744:1
058765:1
058798:1
058834:1
058837:1
058914:1
058944:1
059028:1
059044:1
059060:1
059072:1
059095:1
059109:1
059156:1
059180:1
059190:1
059196:1
059242:1
059273:1
059277:1
059283:1
059359:1
059388:1
059391:1
059393:1
059435:1
059466:1
059540:1
059577:1
059608:1
059609:1
059634:1
059710:1
059718:1
059779:1
059796:1
059852:1
059880:1
059905:1
059915:1
059996:1
060006:1
060009:1
060014:1
060027:1
060048:1
060075:1
060094:1
060151:1
060200:1
060214:1
060231:1
060252:1
060264:1
060265:1
060282:1
060301:1
060309:1
060310:1
060324:1
060413:1
060506:1
060523:1
060563:1
060585:1
060606:1
060610:1
060611:1
060634:1
060658:1
060718:1
060725:1
060754:1
060787:1
060794:1
060856:1
060952:1
061045:1
061054:1
061076:1
061114:1
061115:1
061155:1
061182:1
061215:1
061228:1
061245:1
061257:1
061310:1
061323:1
061338:1
061343:1
061380:1
061479:1
061503:1
061512:1
061531:1
061622:1
061629:1
061630:1
061652:1
061671:1
061684:1
061740:1
061830:1
061895:1
061909:1
061997:1
062008:1
062012:1
062013:1
062020:1
062050:1
062057:1
062069:1
062115:1
062132:1
062162:1
062190:1
062210:1
062237:1
062271:1
062282:1
062345:1
062351:1
062398:1
062440:1
062462:1
062481:1
062522:1
062537:1
062551:1
062558:1
062608:1
062609:1
062622:1
062649:1
062661:1
062666:1
062671:1
062678:1
062794:1
062797:1
062805:1
062842:1
062862:1
062883:1
062960:1
062961:1
063008:1
063030:1
063087:1
063096:1
063108:1
063133:1
063151:1
063244:1
063319:1
063367:1
063475:1
063565:1
063585:1
063597:1
063604:1
063653:1
063687:1
063741:1
063790:1
063802:1
063809:1
063883:1
063896:1
063919:1
063965:1
063993:1
064011:1
064012:1
064036:1
064068:1
064090:1
064148:1
064157:1
064224:1
064240:1
064294:1
064348:1
064359:1
064361:1
064363:1
064367:1
064388:1
064431:1
064439:1
064459:1
064497:1
064531:1
064554:1
064571:1
064574:1
064591:1
064682:1
064808:1
064821:1
064822:1
064826:1
064835:1
064853:1
064885:1
064892:1
064960:1
064990:1
065040:1
065076:1
065158:1
065173:1
065201:1
065218:1
065247:1
065299:1
065326:1
065382:1
065413:1
065421:1
065440:1
065490:1
065504:1
