000023:1
000040:1
000074:1
000092:1
000099:1
000113:1
000120:1
000132:1
000135:1
000159:1
000179:1
000193:1
000215:1
000225:1
000231:1
000245:1
000252:1
000261:1
000277:1
000297:1
000311:1
000317:1
000318:1
000329:1
000344:1
000353:1
000362:1
000376:1
000416:1
000428:1
000510:1
000518:1
000544:1
000593:1
000636:1
000638:1
000652:1
000727:1
000751:1
000760:1
000769:1
000777:1
000786:1
000811:1
000813:1
000846:1
000866:1
000878:1
000924:1
000974:1
001008:1
001011:1
001013:1
001018:1
001054:1
001055:1
001059:1
001064:1
001082:1
001087:1
001098:1
001101:1
001114:1
001126:1
001133:1
001138:1
001142:1
001143:1
001178:1
001210:1
001233:1
001283:1
001291:1
001293:1
001310:1
001374:1
001413:1
001423:1
001424:1
001455:1
001467:1
001475:1
001485:1
001494:1
001506:1
001508:1
001555:1
001616:1
001618:1
001636:1
001674:1
001678:1
001701:1
001715:1
001749:1
001770:1
001772:1
001817:1
001829:1
001874:1
001924:1
001928:1
001939:1
001991:1
001992:1
002005:1
002009:1
002077:1
002102:1
002136:1
002151:1
002152:1
002179:1
002207:1
002213:1
002235:1
002244:1
002251:1
002303:1
002316:1
002354:1
002366:1
002430:1
002431:1
002450:1
002457:1
002459:1
002463:1
002491:1
002513:1
002526:1
002543:1
002547:1
002548:1
002550:1
002584:1
002585:1
002591:1
002641:1
002651:1
002667:1
002718:1
002719:1
002779:1
002797:1
002805:1
002809:1
002827:1
002851:1
002860:1
002882:1
002948:1
002949:1
002956:1
002971:1
002973:1
002987:1
003008:1
003012:1
003020:1
003029:1
003056:1
003059:1
003091:1
003092:1
003117:1
003159:1
003160:1
003173:1
003183:1
003213:1
003218:1
003228:1
003234:1
003251:1
003253:1
003265:1
003275:1
003280:1
003282:1
003291:1
003331:1
003363:1
003386:1
003397:1
003409:1
003423:1
003430:1
003444:1
003454:1
003466:1
003472:1
003473:1
003481:1
003495:1
003555:1
003575:1
003583:1
003627:1
003635:1
003639:1
003657:1
003660:1
003664:1
003670:1
003671:1
003689:1
003694:1
003735:1
003759:1
003799:1
003819:1
003851:1
003856:1
003861:1
003863:1
003864:1
003895:1
003909:1
003942:1
003943:1
003953:1
003956:1
003962:1
003975:1
003993:1
004006:1
004048:1
004110:1
004111:1
004132:1
004145:1
004177:1
004180:1
004184:1
004226:1
004233:1
004267:1
004282:1
004284:1
004299:1
004321:1
004347:1
004351:1
004361:1
004383:1
004390:1
004394:1
004406:1
004427:1
004451:1
004464:1
004465:1
004485:1
004493:1
004495:1
004503:1
004517:1
004543:1
004550:1
004555:1
004566:1
004572:1
004599:1
004630:1
004640:1
004656:1
004659:1
004663:1
004677:1
004711:1
004774:1
004796:1
004803:1
004825:1
004838:1
004850:1
004906:1
004925:1
004929:1
004931:1
004956:1
005016:1
005025:1
005030:1
005041:1
005072:1
005083:1
005145:1
005180:1
005204:1
005235:1
005246:1
005266:1
005275:1
005277:1
005279:1
005303:1
005314:1
005322:1
005338:1
005372:1
005405:1
005410:1
005456:1
005488:1
005502:1
005507:1
005529:1
005570:1
005621:1
005644:1
005659:1
005665:1
005684:1
005748:1
005770:1
005784:1
005787:1
005807:1
005825:1
005859:1
005865:1
005885:1
005898:1
005910:1
005955:1
005967:1
005994:1
006021:1
006036:1
006047:1
006073:1
006075:1
006093:1
006101:1
006102:1
006138:1
006150:1
006172:1
006207:1
006230:1
006243:1
006246:1
006250:1
006259:1
006309:1
006419:1
006421:1
006422:1
006440:1
006451:1
006458:1
006459:1
006461:1
006468:1
006470:1
006526:1
006530:1
006539:1
006589:1
006613:1
006667:1
006672:1
006674:1
006680:1
006686:1
006715:1
006731:1
006733:1
006742:1
006757:1
006762:1
006765:1
006774:1
006775:1
006778:1
006798:1
006812:1
006823:1
006845:1
006876:1
006878:1
006884:1
006908:1
006924:1
006948:1
006958:1
006961:1
006971:1
006975:1
006977:1
006992:1
006995:1
007008:1
007010:1
007012:1
007022:1
007028:1
007059:1
007080:1
007086:1
007089:1
007090:1
007098:1
007106:1
007113:1
007128:1
007182:1
007187:1
007200:1
007209:1
007211:1
007213:1
007238:1
007254:1
007263:1
007274:1
007279:1
007286:1
007289:1
007315:1
007328:1
007352:1
007403:1
007406:1
007409:1
007420:1
007425:1
007451:1
007480:1
007509:1
007524:1
007529:1
007589:1
007677:1
007685:1
007702:1
007747:1
007788:1
007793:1
007816:1
007835:1
007841:1
007854:1
007860:1
007872:1
007888:1
007900:1
007914:1
007917:1
007923:1
007934:1
007940:1
007961:1
008030:1
008046:1
008094:1
008095:1
008111:1
008124:1
008142:1
008149:1
008151:1
008174:1
008197:1
008231:1
008244:1
008262:1
008301:1
008313:1
008318:1
008343:1
008357:1
008372:1
008378:1
008388:1
008400:1
008418:1
008422:1
008484:1
008498:1
008501:1
008535:1
008542:1
008553:1
008559:1
008583:1
008634:1
008647:1
008713:1
008723:1
008751:1
008758:1
008787:1
008788:1
008803:1
008805:1
008808:1
008815:1
008818:1
008828:1
008872:1
008876:1
008883:1
008914:1
008946:1
008957:1
008962:1
008973:1
008982:1
008990:1
009000:1
009012:1
009033:1
009041:1
009054:1
009075:1
009086:1
009094:1
009139:1
009193:1
009203:1
009218:1
009230:1
009268:1
009271:1
009283:1
009305:1
009358:1
009372:1
009376:1
009388:1
009400:1
009433:1
009452:1
009466:1
009495:1
009556:1
009605:1
009608:1
009614:1
009616:1
009621:1
009622:1
009652:1
009678:1
009688:1
009706:1
009715:1
009759:1
009784:1
009785:1
009787:1
009815:1
009831:1
009837:1
009851:1
009859:1
009875:1
009877:1
009887:1
009924:1
009926:1
009927:1
009958:1
009979:1
009980:1
009993:1
010001:1
010002:1
010044:1
010054:1
010090:1
010102:1
010115:1
010116:1
010140:1
010169:1
010172:1
010184:1
010191:1
010197:1
010217:1
010220:1
010230:1
010291:1
010308:1
010329:1
010339:1
010376:1
010398:1
010400:1
010403:1
010430:1
010431:1
010472:1
010499:1
010503:1
010508:1
010509:1
010517:1
010519:1
010543:1
010574:1
010594:1
010605:1
010643:1
010651:1
010654:1
010672:1
010680:1
010686:1
010690:1
010700:1
010710:1
010712:1
010726:1
010746:1
010767:1
010789:1
010812:1
010825:1
010840:1
010890:1
010962:1
010985:1
011003:1
011031:1
011055:1
011059:1
011075:1
011093:1
011096:1
011101:1
011137:1
011159:1
011167:1
011189:1
011204:1
011232:1
011299:1
011322:1
011342:1
011360:1
011362:1
011440:1
011441:1
011444:1
011445:1
011469:1
011476:1
011478:1
011512:1
011514:1
011519:1
011527:1
011531:1
011533:1
011543:1
011549:1
011571:1
011576:1
011578:1
011585:1
011594:1
011608:1
011643:1
011653:1
011666:1
011695:1
011715:1
011788:1
011795:1
011800:1
011805:1
011807:1
011811:1
011816:1
011846:1
011851:1
011853:1
011862:1
011870:1
011918:1
011966:1
011992:1
011994:1
012029:1
012084:1
012086:1
012089:1
012093:1
012094:1
012111:1
012126:1
012149:1
012177:1
012179:1
012180:1
012218:1
012244:1
012265:1
012272:1
012292:1
012297:1
012316:1
012365:1
012369:1
012371:1
012372:1
012402:1
012412:1
012451:1
012478:1
012479:1
012489:1
012561:1
012590:1
012613:1
012637:1
012661:1
012664:1
012670:1
012671:1
012693:1
012698:1
012708:1
012711:1
012720:1
012723:1
012725:1
012760:1
012761:1
012788:1
012801:1
012803:1
012805:1
012853:1
012854:1
012863:1
012872:1
012889:1
012893:1
012908:1
012913:1
012931:1
012932:1
012942:1
012958:1
012982:1
012986:1
013006:1
013012:1
013033:1
013043:1
013051:1
013069:1
013079:1
013089:1
013122:1
013126:1
013132:1
013187:1
013215:1
013218:1
013222:1
013250:1
013265:1
013275:1
013317:1
013318:1
013319:1
013324:1
013329:1
013350:1
013354:1
013361:1
013388:1
013393:1
013403:1
013404:1
013417:1
013424:1
013425:1
013441:1
013457:1
013458:1
013496:1
013503:1
013513:1
013526:1
013541:1
013564:1
013585:1
013591:1
013602:1
013633:1
013647:1
013685:1
013686:1
013690:1
013699:1
013702:1
013723:1
013745:1
013759:1
013773:1
013779:1
013801:1
013814:1
013822:1
013834:1
013853:1
013873:1
013895:1
013929:1
014007:1
014010:1
014031:1
014054:1
014057:1
014107:1
014108:1
014120:1
014133:1
014134:1
014145:1
014155:1
014173:1
014185:1
014192:1
014216:1
014230:1
014239:1
014257:1
014273:1
014281:1
014300:1
014314:1
014333:1
014336:1
014344:1
014352:1
014353:1
014366:1
014437:1
014440:1
014441:1
014468:1
014549:1
014588:1
014617:1
014630:1
014638:1
014662:1
014700:1
014707:1
014763:1
014782:1
014829:1
014833:1
014869:1
014898:1
014899:1
014903:1
014917:1
014946:1
014952:1
014966:1
014968:1
014974:1
014999:1
015007:1
015025:1
015045:1
015062:1
015063:1
015085:1
015103:1
015117:1
015118:1
015135:1
015172:1
015192:1
015257:1
015292:1
015300:1
015338:1
015354:1
015373:1
015387:1
015419:1
015425:1
015430:1
015438:1
015440:1
015446:1
015447:1
015449:1
015456:1
015470:1
015482:1
015487:1
015509:1
015536:1
015550:1
015576:1
015579:1
015596:1
015604:1
015619:1
015641:1
015642:1
015659:1
015668:1
015670:1
015671:1
015705:1
015707:1
015722:1
015745:1
015766:1
015794:1
015823:1
015850:1
015853:1
015862:1
015891:1
015895:1
015898:1
015911:1
015914:1
015950:1
015955:1
015959:1
015960:1
015963:1
015965:1
015977:1
016011:1
016046:1
016048:1
016061:1
016067:1
016084:1
016087:1
016098:1
016103:1
016121:1
016130:1
016154:1
016159:1
016190:1
016194:1
016229:1
016278:1
016292:1
016321:1
016334:1
016364:1
016370:1
016380:1
016383:1
016393:1
016397:1
016410:1
016459:1
016499:1
016509:1
016515:1
016532:1
016562:1
016568:1
016578:1
016588:1
016636:1
016650:1
016653:1
016663:1
016674:1
016686:1
016715:1
016726:1
016728:1
016733:1
016754:1
016762:1
016786:1
016788:1
016793:1
016839:1
016840:1
016885:1
016894:1
016919:1
016939:1
016949:1
016950:1
016963:1
016979:1
016989:1
017045:1
017049:1
017057:1
017063:1
017073:1
017075:1
017100:1
017119:1
017121:1
017137:1
017146:1
017153:1
017171:1
017179:1
017185:1
017198:1
017211:1
017303:1
017309:1
017323:1
017358:1
017372:1
017411:1
017435:1
017441:1
017449:1
017457:1
017461:1
017474:1
017501:1
017505:1
017525:1
017526:1
017566:1
017573:1
017590:1
017620:1
017637:1
017662:1
017663:1
017688:1
017694:1
017701:1
017723:1
017760:1
017764:1
017787:1
017812:1
017817:1
017828:1
017837:1
017841:1
017870:1
017920:1
017945:1
018004:1
018097:1
018118:1
018126:1
018130:1
018142:1
018156:1
018165:1
018195:1
018227:1
018248:1
018261:1
018315:1
018377:1
018382:1
018393:1
018403:1
018410:1
018430:1
018444:1
018456:1
018467:1
018499:1
018521:1
018564:1
018568:1
018594:1
018606:1
018626:1
018635:1
018653:1
018671:1
018708:1
018714:1
018736:1
018741:1
018751:1
018790:1
018800:1
018801:1
018803:1
018820:1
018825:1
018834:1
018848:1
018892:1
018947:1
018955:1
018977:1
019101:1
019110:1
019130:1
019142:1
019158:1
019181:1
019184:1
019185:1
019268:1
019283:1
019284:1
019310:1
019317:1
019328:1
019337:1
019349:1
019359:1
019362:1
019370:1
019408:1
019426:1
019459:1
019473:1
019478:1
019510:1
019527:1
019529:1
019549:1
019600:1
019602:1
019638:1
019645:1
019652:1
019660:1
019669:1
019674:1
019705:1
019719:1
019724:1
019726:1
019733:1
019758:1
019770:1
019778:1
019784:1
019791:1
019802:1
019878:1
019881:1
019887:1
019899:1
019921:1
019932:1
019945:1
019952:1
019959:1
019966:1
019973:1
019984:1
020003:1
020039:1
020077:1
020089:1
020094:1
020114:1
020130:1
020140:1
020142:1
020151:1
020162:1
020221:1
020222:1
020231:1
020232:1
020270:1
020276:1
020293:1
020303:1
020331:1
020362:1
020397:1
020408:1
020411:1
020429:1
020453:1
020459:1
020465:1
020482:1
020499:1
020511:1
020516:1
020517:1
020549:1
020550:1
020555:1
020561:1
020572:1
020578:1
020588:1
020598:1
020618:1
020631:1
020635:1
020650:1
020673:1
020686:1
020692:1
020736:1
020745:1
020755:1
020760:1
020784:1
020807:1
020828:1
020837:1
020853:1
020868:1
020879:1
020881:1
020913:1
020919:1
020927:1
020930:1
020933:1
020952:1
020982:1
021012:1
021035:1
021074:1
021086:1
021126:1
021133:1
021137:1
021153:1
021157:1
021183:1
021215:1
021216:1
021222:1
021242:1
021261:1
021266:1
021278:1
021291:1
021303:1
021330:1
021374:1
021375:1
021382:1
021384:1
021402:1
021414:1
021429:1
021447:1
021448:1
021487:1
021513:1
021553:1
021569:1
021574:1
021584:1
021597:1
021620:1
021636:1
021639:1
021640:1
021661:1
021695:1
021697:1
021718:1
021724:1
021730:1
021759:1
021770:1
021775:1
021776:1
021792:1
021798:1
021813:1
021815:1
021837:1
021856:1
021862:1
021884:1
021888:1
021957:1
021977:1
021988:1
022016:1
022035:1
022048:1
022070:1
022074:1
022084:1
022101:1
022138:1
022152:1
022173:1
022178:1
022225:1
022230:1
022235:1
022238:1
022252:1
022266:1
022307:1
022319:1
022327:1
022334:1
022356:1
022359:1
022368:1
022371:1
022374:1
022444:1
022458:1
022467:1
022476:1
022477:1
022497:1
022503:1
022511:1
022533:1
022623:1
022653:1
022680:1
022693:1
022696:1
022702:1
022714:1
022729:1
022751:1
022755:1
022756:1
022773:1
022792:1
022798:1
022805:1
022833:1
022842:1
022847:1
022886:1
022937:1
022950:1
022969:1
022990:1
022991:1
023006:1
023044:1
023078:1
023084:1
023101:1
023150:1
023184:1
023185:1
023208:1
023241:1
023248:1
023265:1
023306:1
023310:1
023341:1
023356:1
023412:1
023420:1
023429:1
023431:1
023432:1
023467:1
023473:1
023475:1
023476:1
023479:1
023480:1
023497:1
023528:1
023533:1
023536:1
023590:1
023593:1
023633:1
023659:1
023662:1
023669:1
023708:1
023713:1
023731:1
023741:1
023745:1
023751:1
023757:1
023770:1
023783:1
023798:1
023831:1
023838:1
023858:1
023876:1
023947:1
023978:1
023987:1
024013:1
024017:1
024023:1
024034:1
024036:1
024063:1
024068:1
024077:1
024078:1
024096:1
024134:1
024154:1
024177:1
024184:1
024191:1
024210:1
024238:1
024246:1
024263:1
024290:1
024319:1
024323:1
024330:1
024343:1
024348:1
024352:1
024363:1
024366:1
024370:1
024390:1
024395:1
024432:1
024443:1
024462:1
024466:1
024472:1
024474:1
024481:1
024493:1
024500:1
024518:1
024552:1
024556:1
024570:1
024578:1
024580:1
024601:1
024641:1
024659:1
024670:1
024698:1
024729:1
024805:1
024902:1
024916:1
024944:1
024951:1
024963:1
024967:1
024974:1
025046:1
025120:1
025145:1
025149:1
025168:1
025262:1
025264:1
025268:1
025293:1
025347:1
025360:1
025374:1
025400:1
025412:1
025440:1
025454:1
025468:1
025473:1
025483:1
025487:1
025495:1
025497:1
025518:1
025527:1
025559:1
025620:1
025623:1
025632:1
025638:1
025644:1
025681:1
025686:1
025729:1
025757:1
025761:1
025797:1
025816:1
025822:1
025824:1
025827:1
025829:1
025834:1
025866:1
025867:1
025881:1
025885:1
025904:1
025906:1
025910:1
025925:1
025931:1
025935:1
025940:1
025944:1
025945:1
025964:1
025974:1
025977:1
025988:1
026014:1
026070:1
026088:1
026098:1
026109:1
026122:1
026123:1
026140:1
026141:1
026144:1
026163:1
026214:1
026220:1
026243:1
026251:1
026287:1
026297:1
026298:1
026311:1
026312:1
026361:1
026380:1
026393:1
026405:1
026428:1
026448:1
026459:1
026470:1
026481:1
026483:1
026502:1
026516:1
026526:1
026543:1
026548:1
026561:1
026562:1
026580:1
026583:1
026584:1
026600:1
026609:1
026624:1
026629:1
026631:1
026655:1
026672:1
026678:1
026685:1
026687:1
026697:1
026737:1
026760:1
026807:1
026817:1
026831:1
026851:1
026876:1
026900:1
026907:1
026909:1
026919:1
026921:1
026925:1
026926:1
026931:1
026934:1
026948:1
026964:1
027001:1
027007:1
027010:1
027016:1
027020:1
027060:1
027086:1
027088:1
027091:1
027102:1
027142:1
027151:1
027179:1
027206:1
027216:1
027228:1
027284:1
027297:1
027303:1
027304:1
027307:1
027330:1
027347:1
027370:1
027375:1
027383:1
027384:1
027397:1
027399:1
027484:1
027488:1
027501:1
027511:1
027525:1
027531:1
027541:1
027549:1
027593:1
027616:1
027625:1
027631:1
027632:1
027685:1
027759:1
027760:1
027791:1
027793:1
027807:1
027813:1
027817:1
027900:1
027922:1
027926:1
027929:1
027961:1
027973:1
027986:1
028042:1
028058:1
028066:1
028101:1
028103:1
028135:1
028188:1
028219:1
028268:1
028291:1
028293:1
028307:1
028317:1
028359:1
028366:1
028371:1
028404:1
028414:1
028418:1
028438:1
028458:1
028461:1
028463:1
028469:1
028524:1
028528:1
028566:1
028586:1
028594:1
028597:1
028649:1
028655:1
028686:1
028704:1
028705:1
028708:1
028731:1
028733:1
028755:1
028759:1
028763:1
028789:1
028837:1
028877:1
028901:1
028948:1
028951:1
028977:1
029056:1
029067:1
029068:1
029075:1
029100:1
029116:1
029143:1
029153:1
029165:1
029187:1
029195:1
029205:1
029214:1
029224:1
029250:1
029257:1
029263:1
029265:1
029305:1
029336:1
029353:1
029356:1
029358:1
029359:1
029374:1
029394:1
029417:1
029424:1
029428:1
029446:1
029455:1
029510:1
029552:1
029555:1
029569:1
029575:1
029596:1
029609:1
029614:1
029659:1
029685:1
029707:1
029716:1
029720:1
029750:1
029755:1
029768:1
029800:1
029805:1
029829:1
029842:1
029847:1
029848:1
029853:1
029870:1
029899:1
029924:1
029941:1
029962:1
029998:1
030022:1
030030:1
030042:1
030043:1
030083:1
030085:1
030106:1
030108:1
030110:1
030121:1
030159:1
030167:1
030189:1
030245:1
030248:1
030256:1
030261:1
030263:1
030277:1
030278:1
030284:1
030301:1
030323:1
030327:1
030337:1
030348:1
030354:1
030426:1
030439:1
030472:1
030479:1
030499:1
030508:1
030519:1
030526:1
030528:1
030541:1
030567:1
030626:1
030630:1
030632:1
030640:1
030641:1
030644:1
030669:1
030700:1
030723:1
030749:1
030753:1
030758:1
030773:1
030781:1
030800:1
030845:1
030847:1
030856:1
030863:1
030878:1
030904:1
030933:1
031022:1
031037:1
031041:1
031053:1
031054:1
031057:1
031093:1
031094:1
031165:1
031177:1
031212:1
031223:1
031234:1
031270:1
031284:1
031347:1
031381:1
031382:1
031384:1
031390:1
031410:1
031422:1
031424:1
031426:1
031435:1
031441:1
031472:1
031479:1
031480:1
031484:1
031492:1
031525:1
031531:1
031585:1
031603:1
031624:1
031634:1
031690:1
031712:1
031753:1
031808:1
031861:1
031865:1
031870:1
031897:1
031922:1
031941:1
031945:1
031964:1
031974:1
031981:1
032034:1
032042:1
032058:1
032085:1
032089:1
032104:1
032112:1
032155:1
032174:1
032177:1
032256:1
032260:1
032270:1
032272:1
032282:1
032285:1
032309:1
032322:1
032323:1
032359:1
032368:1
032395:1
032472:1
032502:1
032514:1
032528:1
032574:1
032590:1
032601:1
032611:1
032615:1
032625:1
032627:1
032650:1
032683:1
032711:1
032725:1
032795:1
032821:1
032825:1
032844:1
032856:1
032868:1
032897:1
032899:1
032900:1
032901:1
032905:1
032912:1
032930:1
032945:1
032957:1
032960:1
032981:1
033043:1
033064:1
033065:1
033086:1
033118:1
033175:1
033202:1
033226:1
033232:1
033247:1
033262:1
033264:1
033274:1
033307:1
033322:1
033330:1
033353:1
033372:1
033398:1
033416:1
033470:1
033549:1
033558:1
033617:1
033635:1
033656:1
033659:1
033685:1
033735:1
033770:1
033774:1
033814:1
033830:1
033888:1
033911:1
033920:1
033921:1
033954:1
033985:1
033993:1
034006:1
034038:1
034039:1
034048:1
034050:1
034051:1
034079:1
034143:1
034166:1
034177:1
034191:1
034214:1
034227:1
034241:1
034267:1
034283:1
034323:1
034324:1
034353:1
034356:1
034370:1
034384:1
034387:1
034388:1
034403:1
034416:1
034434:1
034447:1
034452:1
034463:1
034475:1
034504:1
034526:1
034552:1
034559:1
034631:1
034659:1
034668:1
034669:1
034683:1
034693:1
034707:1
034716:1
034721:1
034722:1
034737:1
034773:1
034779:1
034785:1
034792:1
034812:1
034827:1
034842:1
034850:1
034869:1
034909:1
034930:1
034950:1
034966:1
034972:1
034987:1
034996:1
035009:1
035023:1
035038:1
035045:1
035055:1
035079:1
035106:1
035144:1
035145:1
035151:1
035159:1
035164:1
035232:1
035258:1
035259:1
035295:1
035298:1
035299:1
035300:1
035339:1
035358:1
035373:1
035374:1
035384:1
035417:1
035424:1
035429:1
035455:1
035456:1
035537:1
035538:1
035540:1
035560:1
035569:1
035587:1
035597:1
035600:1
035610:1
035658:1
035661:1
035671:1
035703:1
035708:1
035721:1
035732:1
035758:1
035769:1
035780:1
035792:1
035819:1
035831:1
035869:1
035876:1
035882:1
035888:1
035925:1
035931:1
036027:1
036038:1
036077:1
036106:1
036146:1
036173:1
036197:1
036236:1
036242:1
036252:1
036255:1
036263:1
036324:1
036329:1
036345:1
036377:1
036404:1
036405:1
036425:1
036432:1
036434:1
036443:1
036445:1
036448:1
036449:1
036477:1
036488:1
036497:1
036498:1
036555:1
036558:1
036583:1
036595:1
036649:1
036687:1
036691:1
036705:1
036712:1
036713:1
036715:1
036727:1
036786:1
036789:1
036797:1
036822:1
036845:1
036854:1
036878:1
036905:1
036911:1
036926:1
036933:1
036954:1
036981:1
036988:1
036995:1
037010:1
037030:1
037032:1
037071:1
037112:1
037117:1
037175:1
037186:1
037203:1
037228:1
037252:1
037298:1
037309:1
037332:1
037362:1
037377:1
037401:1
037425:1
037451:1
037463:1
037476:1
037512:1
037516:1
037535:1
037541:1
037546:1
037629:1
037638:1
037660:1
037662:1
037665:1
037680:1
037682:1
037700:1
037707:1
037709:1
037777:1
037794:1
037807:1
037809:1
037841:1
037859:1
037866:1
037928:1
037946:1
037955:1
037965:1
037970:1
037977:1
037978:1
037983:1
037989:1
038066:1
038075:1
038092:1
038152:1
038153:1
038156:1
038185:1
038196:1
038208:1
038231:1
038232:1
038245:1
038273:1
038314:1
038323:1
038341:1
038364:1
038456:1
038463:1
038467:1
038477:1
038486:1
038524:1
038534:1
038541:1
038590:1
038604:1
038618:1
038656:1
038659:1
038668:1
038671:1
038677:1
038718:1
038726:1
038743:1
038840:1
038844:1
038845:1
038853:1
038919:1
038924:1
038940:1
038946:1
038948:1
038957:1
038980:1
039002:1
039021:1
039045:1
039144:1
039149:1
039150:1
039152:1
039169:1
039187:1
039217:1
039237:1
039255:1
039257:1
039258:1
039260:1
039274:1
039289:1
039309:1
039340:1
039346:1
039349:1
039359:1
039403:1
039426:1
039434:1
039502:1
039525:1
039529:1
039546:1
039556:1
039575:1
039587:1
039588:1
039605:1
039608:1
039615:1
039653:1
039687:1
039698:1
039706:1
039717:1
039739:1
039762:1
039768:1
039771:1
039779:1
039819:1
039852:1
039857:1
039865:1
039884:1
039970:1
039973:1
039974:1
039979:1
039998:1
040002:1
040006:1
040008:1
040015:1
040027:1
040035:1
040058:1
040072:1
040081:1
040100:1
040116:1
040133:1
040151:1
040154:1
040155:1
040166:1
040177:1
040178:1
040194:1
040211:1
040237:1
040253:1
040301:1
040302:1
040307:1
040312:1
040324:1
040327:1
040343:1
040405:1
040434:1
040444:1
040465:1
040510:1
040547:1
040564:1
040572:1
040595:1
040605:1
040643:1
040647:1
040655:1
040659:1
040664:1
040670:1
040675:1
040676:1
040684:1
040693:1
040698:1
040756:1
040775:1
040795:1
040806:1
040808:1
040816:1
040843:1
040852:1
040856:1
040858:1
040889:1
040890:1
040900:1
040908:1
040922:1
040934:1
040948:1
040949:1
040950:1
040957:1
040971:1
040977:1
041022:1
041042:1
041080:1
041085:1
041093:1
041100:1
041114:1
041172:1
041211:1
041221:1
041233:1
041236:1
041246:1
041257:1
041269:1
041309:1
041331:1
041344:1
041392:1
041411:1
041414:1
041415:1
041449:1
041472:1
041477:1
041538:1
041540:1
041556:1
041583:1
041590:1
041616:1
041622:1
041645:1
041654:1
041667:1
041695:1
041704:1
041713:1
041729:1
041750:1
041778:1
041806:1
041807:1
041887:1
041895:1
041906:1
041929:1
041943:1
041947:1
041997:1
042010:1
042016:1
042074:1
042076:1
042135:1
042141:1
042147:1
042157:1
042209:1
042216:1
042231:1
042240:1
042249:1
042272:1
042278:1
042279:1
042281:1
042366:1
042372:1
042415:1
042432:1
042462:1
042473:1
042474:1
042511:1
042516:1
042538:1
042550:1
042575:1
042584:1
042597:1
042604:1
042609:1
042618:1
042643:1
042661:1
042667:1
042750:1
042753:1
042755:1
042763:1
042777:1
042781:1
042809:1
042813:1
042840:1
042909:1
042911:1
042913:1
042934:1
042949:1
042961:1
042999:1
043006:1
043035:1
043040:1
043067:1
043082:1
043093:1
043148:1
043153:1
043160:1
043167:1
043186:1
043223:1
043235:1
043248:1
043252:1
043253:1
043306:1
043308:1
043310:1
043330:1
043332:1
043363:1
043404:1
043413:1
043415:1
043422:1
043424:1
043434:1
043474:1
043502:1
043510:1
043519:1
043526:1
043533:1
043551:1
043563:1
043589:1
043655:1
043664:1
043670:1
043671:1
043672:1
043673:1
043683:1
043699:1
043723:1
043736:1
043742:1
043762:1
043768:1
043807:1
043820:1
043840:1
043853:1
043865:1
043869:1
043870:1
043918:1
043945:1
043973:1
044029:1
044034:1
044057:1
044105:1
044108:1
044138:1
044151:1
044185:1
044198:1
044205:1
044210:1
044223:1
044275:1
044281:1
044288:1
044302:1
044317:1
044327:1
044372:1
044374:1
044376:1
044406:1
044428:1
044456:1
044481:1
044514:1
044525:1
044527:1
044528:1
044546:1
044566:1
044597:1
044620:1
044626:1
044679:1
044693:1
044695:1
044710:1
044715:1
044735:1
044778:1
044788:1
044839:1
044863:1
044872:1
044910:1
044917:1
044929:1
044934:1
044938:1
044948:1
044959:1
044990:1
044994:1
045007:1
045015:1
045049:1
045052:1
045065:1
045073:1
045090:1
045097:1
045122:1
045123:1
045169:1
045172:1
045198:1
045210:1
045217:1
045232:1
045244:1
045245:1
045246:1
045257:1
045260:1
045304:1
045309:1
045315:1
045328:1
045342:1
045352:1
045428:1
045448:1
045464:1
045502:1
045511:1
045513:1
045515:1
045518:1
045543:1
045556:1
045578:1
045580:1
045586:1
045626:1
045638:1
045644:1
045650:1
045669:1
045675:1
045684:1
045688:1
045700:1
045716:1
045723:1
045733:1
045792:1
045859:1
045863:1
045891:1
045912:1
045914:1
045919:1
045943:1
045944:1
045999:1
046006:1
046015:1
046029:1
046050:1
046060:1
046100:1
046126:1
046127:1
046163:1
046169:1
046172:1
046182:1
046192:1
046227:1
046273:1
046274:1
046291:1
046327:1
046340:1
046360:1
046366:1
046417:1
046431:1
046434:1
046456:1
046477:1
046489:1
046526:1
046540:1
046561:1
046577:1
046621:1
046664:1
046665:1
046688:1
046764:1
046785:1
046796:1
046803:1
046808:1
046816:1
046853:1
046854:1
046879:1
046894:1
046924:1
046927:1
046951:1
046959:1
046968:1
046969:1
046972:1
046997:1
047040:1
047053:1
047067:1
047087:1
047103:1
047107:1
047129:1
047133:1
047135:1
047143:1
047144:1
047152:1
047168:1
047193:1
047227:1
047235:1
047294:1
047300:1
047310:1
047336:1
047357:1
047383:1
047411:1
047434:1
047443:1
047473:1
047482:1
047504:1
047510:1
047512:1
047518:1
047529:1
047530:1
047561:1
047580:1
047588:1
047641:1
047661:1
047668:1
047671:1
047688:1
047707:1
047745:1
047756:1
047762:1
047765:1
047791:1
047795:1
047821:1
047832:1
047833:1
047839:1
047865:1
047888:1
047918:1
047923:1
047957:1
047961:1
047987:1
047994:1
047999:1
048052:1
048061:1
048066:1
048100:1
048116:1
048166:1
048192:1
048193:1
048202:1
048205:1
048207:1
048225:1
048240:1
048277:1
048300:1
048342:1
048347:1
048359:1
048362:1
048375:1
048381:1
048398:1
048406:1
048414:1
048435:1
048452:1
048472:1
048477:1
048491:1
048499:1
048528:1
048540:1
048552:1
048572:1
048580:1
048613:1
048669:1
048671:1
048676:1
048679:1
048685:1
048699:1
048706:1
048777:1
048784:1
048787:1
048794:1
048861:1
048880:1
048894:1
048896:1
048912:1
048917:1
048923:1
048930:1
048974:1
048982:1
048995:1
049030:1
049087:1
049092:1
049104:1
049144:1
049161:1
049167:1
049170:1
049190:1
049197:1
049207:1
049288:1
049322:1
049329:1
049358:1
049359:1
049390:1
049405:1
049431:1
049461:1
049464:1
049481:1
049482:1
049496:1
049499:1
049512:1
049513:1
049576:1
049578:1
049604:1
049613:1
049651:1
049661:1
049669:1
049672:1
049680:1
049697:1
049705:1
049738:1
049741:1
049744:1
049774:1
049779:1
049794:1
049800:1
049810:1
049816:1
049850:1
049855:1
049896:1
049955:1
049970:1
049997:1
050020:1
050042:1
050057:1
050082:1
050085:1
050095:1
050151:1
050160:1
050161:1
050171:1
050196:1
050212:1
050240:1
050254:1
050266:1
050268:1
050296:1
050297:1
050324:1
050333:1
050343:1
050365:1
050368:1
050377:1
050388:1
050395:1
050416:1
050422:1
050431:1
050465:1
050482:1
050483:1
050485:1
050496:1
050502:1
050513:1
050526:1
050545:1
050564:1
050573:1
050588:1
050604:1
050636:1
050651:1
050654:1
050664:1
050707:1
050769:1
050790:1
050825:1
050853:1
050905:1
050917:1
050951:1
050967:1
050977:1
050979:1
051004:1
051035:1
051047:1
051050:1
051139:1
051151:1
051168:1
051174:1
051236:1
051237:1
051257:1
051258:1
051263:1
051278:1
051280:1
051293:1
051319:1
051326:1
051333:1
051337:1
051418:1
051442:1
051525:1
051528:1
051548:1
051549:1
051556:1
051586:1
051620:1
051631:1
051700:1
051714:1
051758:1
051769:1
051781:1
051799:1
051833:1
051842:1
051893:1
051905:1
051942:1
051958:1
051960:1
051984:1
052007:1
052009:1
052019:1
052042:1
052043:1
052059:1
052060:1
052079:1
052086:1
052155:1
052191:1
052192:1
052196:1
052201:1
052223:1
052228:1
052232:1
052233:1
052270:1
052303:1
052323:1
052352:1
052377:1
052380:1
052381:1
052388:1
052405:1
052432:1
052454:1
052473:1
052519:1
052593:1
052598:1
052599:1
052647:1
052674:1
052685:1
052695:1
052747:1
052759:1
052762:1
052807:1
052836:1
052841:1
052867:1
052873:1
052889:1
052899:1
052939:1
052965:1
052970:1
052995:1
053003:1
053028:1
053090:1
053097:1
053130:1
053136:1
053143:1
053172:1
053183:1
053187:1
053199:1
053221:1
053247:1
053255:1
053269:1
053280:1
053287:1
053326:1
053382:1
053389:1
053422:1
053424:1
053450:1
053465:1
053466:1
053487:1
053496:1
053527:1
053558:1
053576:1
053581:1
053587:1
053632:1
053657:1
053661:1
053678:1
053699:1
053705:1
053738:1
053760:1
053763:1
053777:1
053782:1
053787:1
053804:1
053814:1
053818:1
053837:1
053845:1
053859:1
053877:1
053879:1
053897:1
053905:1
053920:1
053927:1
053929:1
053945:1
053946:1
053947:1
053965:1
054047:1
054048:1
054054:1
054085:1
054087:1
054091:1
054096:1
054099:1
054110:1
054132:1
054133:1
054156:1
054168:1
054213:1
054246:1
054259:1
054279:1
054290:1
054304:1
054358:1
054385:1
054410:1
054416:1
054479:1
054599:1
054605:1
054664:1
054672:1
054681:1
054682:1
054687:1
054691:1
054723:1
054747:1
054759:1
054786:1
054794:1
054817:1
054823:1
054827:1
054839:1
054845:1
054892:1
054901:1
054911:1
054922:1
054945:1
054964:1
054978:1
054982:1
054989:1
054991:1
055010:1
055037:1
055045:1
055064:1
055071:1
055085:1
055100:1
055104:1
055113:1
055115:1
055126:1
055176:1
055184:1
055195:1
055198:1
055246:1
055250:1
055280:1
055319:1
055325:1
055332:1
055335:1
055337:1
055338:1
055350:1
055352:1
055378:1
055396:1
055404:1
055419:1
055437:1
055447:1
055452:1
055456:1
055469:1
055509:1
055524:1
055574:1
055575:1
055640:1
055643:1
055659:1
055664:1
055668:1
055706:1
055718:1
055755:1
055771:1
055777:1
055779:1
055825:1
055870:1
055882:1
055891:1
055909:1
055913:1
055927:1
055980:1
055999:1
056004:1
056010:1
056026:1
056031:1
056038:1
056042:1
056045:1
056048:1
056080:1
056084:1
056097:1
056122:1
056124:1
056149:1
056151:1
056168:1
056177:1
056180:1
056181:1
056198:1
056215:1
056235:1
056254:1
056262:1
056276:1
056305:1
056306:1
056308:1
056319:1
056360:1
056396:1
056402:1
056436:1
056442:1
056450:1
056454:1
056461:1
056476:1
056511:1
056561:1
056569:1
056597:1
056599:1
056601:1
056605:1
056614:1
056631:1
056736:1
056757:1
056779:1
056780:1
056793:1
056794:1
056800:1
056833:1
056837:1
056847:1
056859:1
056871:1
056872:1
056878:1
056880:1
056896:1
056915:1
056967:1
056972:1
056987:1
057012:1
057080:1
057107:1
057132:1
057156:1
057202:1
057231:1
057234:1
057276:1
057279:1
057285:1
057293:1
057304:1
057317:1
057367:1
057370:1
057398:1
057414:1
057446:1
057456:1
057485:1
057531:1
057559:1
057575:1
057590:1
057593:1
057652:1
057669:1
057701:1
057716:1
057722:1
057723:1
057749:1
057750:1
057764:1
057856:1
057857:1
057880:1
057893:1
057896:1
057917:1
057923:1
057977:1
058021:1
058035:1
058050:1
058062:1
058076:1
058082:1
058108:1
058113:1
058122:1
058123:1
058128:1
058137:1
058141:1
058144:1
058150:1
058154:1
058173:1
058177:1
058207:1
058236:1
058238:1
058273:1
058289:1
058356:1
058397:1
058424:1
058426:1
058428:1
058435:1
058458:1
058466:1
058472:1
058491:1
058499:1
058520:1
058525:1
058545:1
058555:1
058559:1
058572:1
058638:1
058676:1
058684:1
058686:1
058695:1
058701:1
058704:1
058705:1
058720:1
058725:1
058730:1
058826:1
058831:1
058844:1
058852:1
058853:1
058857:1
058873:1
058880:1
058895:1
058937:1
058948:1
058959:1
059022:1
059064:1
059085:1
059121:1
059123:1
059141:1
059150:1
059161:1
059187:1
059193:1
059212:1
059227:1
059235:1
059277:1
059324:1
059340:1
059376:1
059388:1
059389:1
059401:1
059440:1
059497:1
059566:1
059569:1
059585:1
059590:1
059595:1
059599:1
059615:1
059623:1
059661:1
059709:1
059732:1
059733:1
059769:1
059785:1
059802:1
059830:1
059839:1
059842:1
059844:1
059851:1
059859:1
059863:1
059883:1
059884:1
059925:1
059962:1
059968:1
059995:1
060054:1
060057:1
060066:1
060069:1
060076:1
060090:1
060099:1
060105:1
060108:1
060127:1
060172:1
060196:1
060206:1
060230:1
060244:1
060273:1
060316:1
060322:1
060360:1
060388:1
060397:1
060433:1
060445:1
060456:1
060459:1
060464:1
060484:1
060564:1
060579:1
060603:1
060648:1
060651:1
060658:1
060665:1
060672:1
060706:1
060711:1
060713:1
060726:1
060766:1
060797:1
060822:1
060835:1
060843:1
060850:1
060851:1
060852:1
060862:1
060881:1
060897:1
060901:1
060928:1
060929:1
060934:1
060939:1
060941:1
060970:1
060972:1
060980:1
060986:1
060995:1
061025:1
061053:1
061056:1
061107:1
061120:1
061165:1
061190:1
061220:1
061237:1
061244:1
061252:1
061265:1
061281:1
061302:1
061310:1
061347:1
061354:1
061357:1
061418:1
061431:1
061451:1
061452:1
061531:1
061551:1
061575:1
061585:1
061597:1
061616:1
061622:1
061624:1
061627:1
061629:1
061634:1
061654:1
061664:1
061667:1
061679:1
061685:1
061699:1
061702:1
061709:1
061742:1
061772:1
061816:1
061823:1
061835:1
061852:1
061870:1
061882:1
061884:1
061893:1
061919:1
061925:1
061974:1
062025:1
062028:1
062047:1
062083:1
062108:1
062109:1
062164:1
062168:1
062170:1
062194:1
062253:1
062255:1
062278:1
062303:1
062304:1
062314:1
062343:1
062353:1
062359:1
062393:1
062477:1
062520:1
062529:1
062548:1
062607:1
062684:1
062721:1
062742:1
062743:1
062762:1
062796:1
062865:1
062867:1
062868:1
062899:1
062914:1
062931:1
062940:1
062946:1
062960:1
062982:1
062987:1
062996:1
063005:1
063008:1
063053:1
063094:1
063204:1
063210:1
063211:1
063215:1
063348:1
063355:1
063390:1
063442:1
063475:1
063483:1
063497:1
063503:1
063509:1
063520:1
063574:1
063585:1
063605:1
063636:1
063646:1
063670:1
063682:1
063698:1
063699:1
063719:1
063732:1
063771:1
063773:1
063783:1
063808:1
063813:1
063834:1
063840:1
063850:1
063857:1
063911:1
063916:1
063959:1
063961:1
063987:1
064034:1
064041:1
064047:1
064048:1
064081:1
064096:1
064118:1
064124:1
064154:1
064155:1
064203:1
064204:1
064208:1
064216:1
064251:1
064272:1
064282:1
064297:1
064311:1
064314:1
064318:1
064334:1
064342:1
064389:1
064394:1
064415:1
064427:1
064436:1
064476:1
064494:1
064532:1
064536:1
064546:1
064575:1
064598:1
064611:1
064645:1
064676:1
064703:1
064719:1
064739:1
064757:1
064773:1
064804:1
064846:1
064849:1
064854:1
064871:1
064874:1
064878:1
064885:1
064887:1
064893:1
064894:1
064904:1
064906:1
064915:1
064940:1
064957:1
064969:1
064980:1
064995:1
065001:1
065026:1
065055:1
065079:1
065092:1
065102:1
065115:1
065120:1
065135:1
065208:1
065209:1
065219:1
065264:1
065270:1
065271:1
065296:1
065302:1
065338:1
065353:1
065370:1
065387:1
065407:1
065418:1
065436:1
065453:1
065466:1
065496:1
065526:1
